{
  "configVersion": 2,
  "packages": [
    {
      "name": "_fe_analyzer_shared",
      "rootUri": "file:///C:/flutter/.pub-cache/hosted/pub.dartlang.org/_fe_analyzer_shared-50.0.0",
      "packageUri": "lib/",
      "languageVersion": "2.17"
    },
    {
      "name": "_flutterfire_internals",
      "rootUri": "file:///C:/flutter/.pub-cache/hosted/pub.dartlang.org/_flutterfire_internals-1.0.11",
      "packageUri": "lib/",
      "languageVersion": "2.16"
    },
    {
      "name": "analyzer",
      "rootUri": "file:///C:/flutter/.pub-cache/hosted/pub.dartlang.org/analyzer-5.2.0",
      "packageUri": "lib/",
      "languageVersion": "2.17"
    },
    {
      "name": "args",
      "rootUri": "file:///C:/flutter/.pub-cache/hosted/pub.dartlang.org/args-2.3.1",
      "packageUri": "lib/",
      "languageVersion": "2.12"
    },
    {
      "name": "async",
      "rootUri": "file:///C:/flutter/.pub-cache/hosted/pub.dartlang.org/async-2.9.0",
      "packageUri": "lib/",
      "languageVersion": "2.14"
    },
    {
      "name": "audio_session",
      "rootUri": "file:///C:/flutter/.pub-cache/hosted/pub.dartlang.org/audio_session-0.1.13",
      "packageUri": "lib/",
      "languageVersion": "2.12"
    },
    {
      "name": "audioplayers",
      "rootUri": "file:///C:/flutter/.pub-cache/hosted/pub.dartlang.org/audioplayers-1.2.0",
      "packageUri": "lib/",
      "languageVersion": "2.14"
    },
    {
      "name": "audioplayers_android",
      "rootUri": "file:///C:/flutter/.pub-cache/hosted/pub.dartlang.org/audioplayers_android-1.1.3",
      "packageUri": "lib/",
      "languageVersion": "2.14"
    },
    {
      "name": "audioplayers_darwin",
      "rootUri": "file:///C:/flutter/.pub-cache/hosted/pub.dartlang.org/audioplayers_darwin-1.0.4",
      "packageUri": "lib/",
      "languageVersion": "2.14"
    },
    {
      "name": "audioplayers_linux",
      "rootUri": "file:///C:/flutter/.pub-cache/hosted/pub.dartlang.org/audioplayers_linux-1.0.2",
      "packageUri": "lib/",
      "languageVersion": "2.14"
    },
    {
      "name": "audioplayers_platform_interface",
      "rootUri": "file:///C:/flutter/.pub-cache/hosted/pub.dartlang.org/audioplayers_platform_interface-2.1.0",
      "packageUri": "lib/",
      "languageVersion": "2.14"
    },
    {
      "name": "audioplayers_web",
      "rootUri": "file:///C:/flutter/.pub-cache/hosted/pub.dartlang.org/audioplayers_web-2.1.0",
      "packageUri": "lib/",
      "languageVersion": "2.14"
    },
    {
      "name": "audioplayers_windows",
      "rootUri": "file:///C:/flutter/.pub-cache/hosted/pub.dartlang.org/audioplayers_windows-1.1.1",
      "packageUri": "lib/",
      "languageVersion": "2.14"
    },
    {
      "name": "base58check",
      "rootUri": "file:///C:/flutter/.pub-cache/hosted/pub.dartlang.org/base58check-2.0.0",
      "packageUri": "lib/",
      "languageVersion": "2.12"
    },
    {
      "name": "bech32",
      "rootUri": "file:///C:/flutter/.pub-cache/hosted/pub.dartlang.org/bech32-0.2.1",
      "packageUri": "lib/",
      "languageVersion": "2.12"
    },
    {
      "name": "blur",
      "rootUri": "file:///C:/flutter/.pub-cache/hosted/pub.dartlang.org/blur-3.1.0",
      "packageUri": "lib/",
      "languageVersion": "2.16"
    },
    {
      "name": "boolean_selector",
      "rootUri": "file:///C:/flutter/.pub-cache/hosted/pub.dartlang.org/boolean_selector-2.1.0",
      "packageUri": "lib/",
      "languageVersion": "2.12"
    },
    {
      "name": "build",
      "rootUri": "file:///C:/flutter/.pub-cache/hosted/pub.dartlang.org/build-2.3.1",
      "packageUri": "lib/",
      "languageVersion": "2.17"
    },
    {
      "name": "build_config",
      "rootUri": "file:///C:/flutter/.pub-cache/hosted/pub.dartlang.org/build_config-1.1.1",
      "packageUri": "lib/",
      "languageVersion": "2.14"
    },
    {
      "name": "build_daemon",
      "rootUri": "file:///C:/flutter/.pub-cache/hosted/pub.dartlang.org/build_daemon-3.1.0",
      "packageUri": "lib/",
      "languageVersion": "2.14"
    },
    {
      "name": "build_resolvers",
      "rootUri": "file:///C:/flutter/.pub-cache/hosted/pub.dartlang.org/build_resolvers-2.1.0",
      "packageUri": "lib/",
      "languageVersion": "2.18"
    },
    {
      "name": "build_runner",
      "rootUri": "file:///C:/flutter/.pub-cache/hosted/pub.dartlang.org/build_runner-2.3.3",
      "packageUri": "lib/",
      "languageVersion": "2.14"
    },
    {
      "name": "build_runner_core",
      "rootUri": "file:///C:/flutter/.pub-cache/hosted/pub.dartlang.org/build_runner_core-7.2.7",
      "packageUri": "lib/",
      "languageVersion": "2.17"
    },
    {
      "name": "built_collection",
      "rootUri": "file:///C:/flutter/.pub-cache/hosted/pub.dartlang.org/built_collection-5.1.1",
      "packageUri": "lib/",
      "languageVersion": "2.12"
    },
    {
      "name": "built_value",
      "rootUri": "file:///C:/flutter/.pub-cache/hosted/pub.dartlang.org/built_value-8.4.2",
      "packageUri": "lib/",
      "languageVersion": "2.12"
    },
    {
      "name": "cached_network_image",
      "rootUri": "file:///C:/flutter/.pub-cache/hosted/pub.dartlang.org/cached_network_image-3.2.3",
      "packageUri": "lib/",
      "languageVersion": "2.18"
    },
    {
      "name": "cached_network_image_platform_interface",
      "rootUri": "file:///C:/flutter/.pub-cache/hosted/pub.dartlang.org/cached_network_image_platform_interface-2.0.0",
      "packageUri": "lib/",
      "languageVersion": "2.18"
    },
    {
      "name": "cached_network_image_web",
      "rootUri": "file:///C:/flutter/.pub-cache/hosted/pub.dartlang.org/cached_network_image_web-1.0.2",
      "packageUri": "lib/",
      "languageVersion": "2.18"
    },
    {
      "name": "camera",
      "rootUri": "file:///C:/flutter/.pub-cache/hosted/pub.dartlang.org/camera-0.10.1",
      "packageUri": "lib/",
      "languageVersion": "2.14"
    },
    {
      "name": "camera_android",
      "rootUri": "file:///C:/flutter/.pub-cache/hosted/pub.dartlang.org/camera_android-0.10.2",
      "packageUri": "lib/",
      "languageVersion": "2.14"
    },
    {
      "name": "camera_avfoundation",
      "rootUri": "file:///C:/flutter/.pub-cache/hosted/pub.dartlang.org/camera_avfoundation-0.9.10",
      "packageUri": "lib/",
      "languageVersion": "2.14"
    },
    {
      "name": "camera_platform_interface",
      "rootUri": "file:///C:/flutter/.pub-cache/hosted/pub.dartlang.org/camera_platform_interface-2.3.2",
      "packageUri": "lib/",
      "languageVersion": "2.12"
    },
    {
      "name": "camera_web",
      "rootUri": "file:///C:/flutter/.pub-cache/hosted/pub.dartlang.org/camera_web-0.3.1",
      "packageUri": "lib/",
      "languageVersion": "2.12"
    },
    {
      "name": "characters",
      "rootUri": "file:///C:/flutter/.pub-cache/hosted/pub.dartlang.org/characters-1.2.1",
      "packageUri": "lib/",
      "languageVersion": "2.12"
    },
    {
      "name": "checked_yaml",
      "rootUri": "file:///C:/flutter/.pub-cache/hosted/pub.dartlang.org/checked_yaml-2.0.1",
      "packageUri": "lib/",
      "languageVersion": "2.12"
    },
    {
      "name": "clock",
      "rootUri": "file:///C:/flutter/.pub-cache/hosted/pub.dartlang.org/clock-1.1.1",
      "packageUri": "lib/",
      "languageVersion": "2.12"
    },
    {
      "name": "cloud_firestore",
      "rootUri": "file:///C:/flutter/.pub-cache/hosted/pub.dartlang.org/cloud_firestore-4.3.0",
      "packageUri": "lib/",
      "languageVersion": "2.16"
    },
    {
      "name": "cloud_firestore_platform_interface",
      "rootUri": "file:///C:/flutter/.pub-cache/hosted/pub.dartlang.org/cloud_firestore_platform_interface-5.10.0",
      "packageUri": "lib/",
      "languageVersion": "2.16"
    },
    {
      "name": "cloud_firestore_web",
      "rootUri": "file:///C:/flutter/.pub-cache/hosted/pub.dartlang.org/cloud_firestore_web-3.2.0",
      "packageUri": "lib/",
      "languageVersion": "2.16"
    },
    {
      "name": "code_builder",
      "rootUri": "file:///C:/flutter/.pub-cache/hosted/pub.dartlang.org/code_builder-4.4.0",
      "packageUri": "lib/",
      "languageVersion": "2.17"
    },
    {
      "name": "collection",
      "rootUri": "file:///C:/flutter/.pub-cache/hosted/pub.dartlang.org/collection-1.16.0",
      "packageUri": "lib/",
      "languageVersion": "2.12"
    },
    {
      "name": "connectivity",
      "rootUri": "file:///C:/flutter/.pub-cache/hosted/pub.dartlang.org/connectivity-3.0.6",
      "packageUri": "lib/",
      "languageVersion": "2.12"
    },
    {
      "name": "connectivity_for_web",
      "rootUri": "file:///C:/flutter/.pub-cache/hosted/pub.dartlang.org/connectivity_for_web-0.4.0+1",
      "packageUri": "lib/",
      "languageVersion": "2.12"
    },
    {
      "name": "connectivity_macos",
      "rootUri": "file:///C:/flutter/.pub-cache/hosted/pub.dartlang.org/connectivity_macos-0.2.1+2",
      "packageUri": "lib/",
      "languageVersion": "2.12"
    },
    {
      "name": "connectivity_platform_interface",
      "rootUri": "file:///C:/flutter/.pub-cache/hosted/pub.dartlang.org/connectivity_platform_interface-2.0.1",
      "packageUri": "lib/",
      "languageVersion": "2.12"
    },
    {
      "name": "contacts_service",
      "rootUri": "file:///C:/flutter/.pub-cache/hosted/pub.dartlang.org/contacts_service-0.6.3",
      "packageUri": "lib/",
      "languageVersion": "2.12"
    },
    {
      "name": "convert",
      "rootUri": "file:///C:/flutter/.pub-cache/hosted/pub.dartlang.org/convert-3.0.2",
      "packageUri": "lib/",
      "languageVersion": "2.12"
    },
    {
      "name": "country_codes",
      "rootUri": "file:///C:/flutter/.pub-cache/hosted/pub.dartlang.org/country_codes-2.2.0",
      "packageUri": "lib/",
      "languageVersion": "2.12"
    },
    {
      "name": "country_icons",
      "rootUri": "file:///C:/flutter/.pub-cache/hosted/pub.dartlang.org/country_icons-2.0.2",
      "packageUri": "lib/",
      "languageVersion": "2.12"
    },
    {
      "name": "cross_file",
      "rootUri": "file:///C:/flutter/.pub-cache/hosted/pub.dartlang.org/cross_file-0.3.3+2",
      "packageUri": "lib/",
      "languageVersion": "2.12"
    },
    {
      "name": "crypto",
      "rootUri": "file:///C:/flutter/.pub-cache/hosted/pub.dartlang.org/crypto-3.0.2",
      "packageUri": "lib/",
      "languageVersion": "2.14"
    },
    {
      "name": "csslib",
      "rootUri": "file:///C:/flutter/.pub-cache/hosted/pub.dartlang.org/csslib-0.17.2",
      "packageUri": "lib/",
      "languageVersion": "2.12"
    },
    {
      "name": "cupertino_icons",
      "rootUri": "file:///C:/flutter/.pub-cache/hosted/pub.dartlang.org/cupertino_icons-1.0.5",
      "packageUri": "lib/",
      "languageVersion": "2.12"
    },
    {
      "name": "dart_style",
      "rootUri": "file:///C:/flutter/.pub-cache/hosted/pub.dartlang.org/dart_style-2.2.4",
      "packageUri": "lib/",
      "languageVersion": "2.17"
    },
    {
      "name": "device_info",
      "rootUri": "file:///C:/flutter/.pub-cache/hosted/pub.dartlang.org/device_info-2.0.3",
      "packageUri": "lib/",
      "languageVersion": "2.12"
    },
    {
      "name": "device_info_platform_interface",
      "rootUri": "file:///C:/flutter/.pub-cache/hosted/pub.dartlang.org/device_info_platform_interface-2.0.1",
      "packageUri": "lib/",
      "languageVersion": "2.12"
    },
    {
      "name": "devicelocale",
      "rootUri": "file:///C:/flutter/.pub-cache/hosted/pub.dartlang.org/devicelocale-0.5.5",
      "packageUri": "lib/",
      "languageVersion": "2.12"
    },
    {
      "name": "easy_localization",
      "rootUri": "file:///C:/flutter/.pub-cache/hosted/pub.dartlang.org/easy_localization-3.0.1",
      "packageUri": "lib/",
      "languageVersion": "2.12"
    },
    {
      "name": "easy_logger",
      "rootUri": "file:///C:/flutter/.pub-cache/hosted/pub.dartlang.org/easy_logger-0.0.2",
      "packageUri": "lib/",
      "languageVersion": "2.12"
    },
    {
      "name": "email_validator",
      "rootUri": "file:///C:/flutter/.pub-cache/hosted/pub.dartlang.org/email_validator-2.1.17",
      "packageUri": "lib/",
      "languageVersion": "2.12"
    },
    {
      "name": "fake_async",
      "rootUri": "file:///C:/flutter/.pub-cache/hosted/pub.dartlang.org/fake_async-1.3.1",
      "packageUri": "lib/",
      "languageVersion": "2.12"
    },
    {
      "name": "ffi",
      "rootUri": "file:///C:/flutter/.pub-cache/hosted/pub.dartlang.org/ffi-2.0.1",
      "packageUri": "lib/",
      "languageVersion": "2.17"
    },
    {
      "name": "file",
      "rootUri": "file:///C:/flutter/.pub-cache/hosted/pub.dartlang.org/file-6.1.4",
      "packageUri": "lib/",
      "languageVersion": "2.12"
    },
    {
      "name": "firebase_auth",
      "rootUri": "file:///C:/flutter/.pub-cache/hosted/pub.dartlang.org/firebase_auth-4.2.3",
      "packageUri": "lib/",
      "languageVersion": "2.16"
    },
    {
      "name": "firebase_auth_platform_interface",
      "rootUri": "file:///C:/flutter/.pub-cache/hosted/pub.dartlang.org/firebase_auth_platform_interface-6.11.6",
      "packageUri": "lib/",
      "languageVersion": "2.16"
    },
    {
      "name": "firebase_auth_web",
      "rootUri": "file:///C:/flutter/.pub-cache/hosted/pub.dartlang.org/firebase_auth_web-5.2.3",
      "packageUri": "lib/",
      "languageVersion": "2.16"
    },
    {
      "name": "firebase_core",
      "rootUri": "file:///C:/flutter/.pub-cache/hosted/pub.dartlang.org/firebase_core-2.4.0",
      "packageUri": "lib/",
      "languageVersion": "2.16"
    },
    {
      "name": "firebase_core_platform_interface",
      "rootUri": "file:///C:/flutter/.pub-cache/hosted/pub.dartlang.org/firebase_core_platform_interface-4.5.2",
      "packageUri": "lib/",
      "languageVersion": "2.16"
    },
    {
      "name": "firebase_core_web",
      "rootUri": "file:///C:/flutter/.pub-cache/hosted/pub.dartlang.org/firebase_core_web-2.0.2",
      "packageUri": "lib/",
      "languageVersion": "2.16"
    },
    {
      "name": "firebase_database",
      "rootUri": "file:///C:/flutter/.pub-cache/hosted/pub.dartlang.org/firebase_database-10.0.8",
      "packageUri": "lib/",
      "languageVersion": "2.16"
    },
    {
      "name": "firebase_database_platform_interface",
      "rootUri": "file:///C:/flutter/.pub-cache/hosted/pub.dartlang.org/firebase_database_platform_interface-0.2.2+16",
      "packageUri": "lib/",
      "languageVersion": "2.16"
    },
    {
      "name": "firebase_database_web",
      "rootUri": "file:///C:/flutter/.pub-cache/hosted/pub.dartlang.org/firebase_database_web-0.2.1+18",
      "packageUri": "lib/",
      "languageVersion": "2.16"
    },
    {
      "name": "firebase_storage",
      "rootUri": "file:///C:/flutter/.pub-cache/hosted/pub.dartlang.org/firebase_storage-11.0.9",
      "packageUri": "lib/",
      "languageVersion": "2.16"
    },
    {
      "name": "firebase_storage_platform_interface",
      "rootUri": "file:///C:/flutter/.pub-cache/hosted/pub.dartlang.org/firebase_storage_platform_interface-4.1.25",
      "packageUri": "lib/",
      "languageVersion": "2.16"
    },
    {
      "name": "firebase_storage_web",
      "rootUri": "file:///C:/flutter/.pub-cache/hosted/pub.dartlang.org/firebase_storage_web-3.3.18",
      "packageUri": "lib/",
      "languageVersion": "2.16"
    },
    {
      "name": "fixnum",
      "rootUri": "file:///C:/flutter/.pub-cache/hosted/pub.dartlang.org/fixnum-1.0.1",
      "packageUri": "lib/",
      "languageVersion": "2.12"
    },
    {
      "name": "flutter",
      "rootUri": "file:///C:/flutter/packages/flutter",
      "packageUri": "lib/",
      "languageVersion": "2.17"
    },
    {
      "name": "flutter_blurhash",
      "rootUri": "file:///C:/flutter/.pub-cache/hosted/pub.dartlang.org/flutter_blurhash-0.7.0",
      "packageUri": "lib/",
      "languageVersion": "2.15"
    },
    {
      "name": "flutter_cache_manager",
      "rootUri": "file:///C:/flutter/.pub-cache/hosted/pub.dartlang.org/flutter_cache_manager-3.3.0",
      "packageUri": "lib/",
      "languageVersion": "2.12"
    },
    {
      "name": "flutter_circular_text",
      "rootUri": "file:///C:/flutter/.pub-cache/hosted/pub.dartlang.org/flutter_circular_text-0.3.1",
      "packageUri": "lib/",
      "languageVersion": "2.12"
    },
    {
      "name": "flutter_ffmpeg",
      "rootUri": "file:///C:/flutter/.pub-cache/hosted/pub.dartlang.org/flutter_ffmpeg-0.4.2",
      "packageUri": "lib/",
      "languageVersion": "2.12"
    },
    {
      "name": "flutter_lints",
      "rootUri": "file:///C:/flutter/.pub-cache/hosted/pub.dartlang.org/flutter_lints-1.0.4",
      "packageUri": "lib/",
      "languageVersion": "2.12"
    },
    {
      "name": "flutter_localizations",
      "rootUri": "file:///C:/flutter/packages/flutter_localizations",
      "packageUri": "lib/",
      "languageVersion": "2.17"
    },
    {
      "name": "flutter_mobx",
      "rootUri": "file:///C:/flutter/.pub-cache/hosted/pub.dartlang.org/flutter_mobx-2.0.6+5",
      "packageUri": "lib/",
      "languageVersion": "2.13"
    },
    {
      "name": "flutter_multi_formatter",
      "rootUri": "file:///C:/flutter/.pub-cache/hosted/pub.dartlang.org/flutter_multi_formatter-2.10.0",
      "packageUri": "lib/",
      "languageVersion": "2.12"
    },
    {
      "name": "flutter_plugin_android_lifecycle",
      "rootUri": "file:///C:/flutter/.pub-cache/hosted/pub.dartlang.org/flutter_plugin_android_lifecycle-2.0.7",
      "packageUri": "lib/",
      "languageVersion": "2.12"
    },
    {
      "name": "flutter_sms",
      "rootUri": "file:///C:/flutter/.pub-cache/hosted/pub.dartlang.org/flutter_sms-2.3.3",
      "packageUri": "lib/",
      "languageVersion": "2.12"
    },
    {
      "name": "flutter_sound",
      "rootUri": "file:///C:/flutter/.pub-cache/hosted/pub.dartlang.org/flutter_sound-9.2.13",
      "packageUri": "lib/",
      "languageVersion": "2.12"
    },
    {
      "name": "flutter_sound_platform_interface",
      "rootUri": "file:///C:/flutter/.pub-cache/hosted/pub.dartlang.org/flutter_sound_platform_interface-9.2.13",
      "packageUri": "lib/",
      "languageVersion": "2.12"
    },
    {
      "name": "flutter_sound_web",
      "rootUri": "file:///C:/flutter/.pub-cache/hosted/pub.dartlang.org/flutter_sound_web-9.2.13",
      "packageUri": "lib/",
      "languageVersion": "2.12"
    },
    {
      "name": "flutter_stripe",
      "rootUri": "file:///C:/flutter/.pub-cache/hosted/pub.dartlang.org/flutter_stripe-7.0.0",
      "packageUri": "lib/",
      "languageVersion": "2.16"
    },
    {
      "name": "flutter_svg",
      "rootUri": "file:///C:/flutter/.pub-cache/hosted/pub.dartlang.org/flutter_svg-1.1.6",
      "packageUri": "lib/",
      "languageVersion": "2.17"
    },
    {
      "name": "flutter_test",
      "rootUri": "file:///C:/flutter/packages/flutter_test",
      "packageUri": "lib/",
      "languageVersion": "2.17"
    },
    {
      "name": "flutter_web_plugins",
      "rootUri": "file:///C:/flutter/packages/flutter_web_plugins",
      "packageUri": "lib/",
      "languageVersion": "2.17"
    },
    {
      "name": "fluttertoast",
      "rootUri": "file:///C:/flutter/.pub-cache/hosted/pub.dartlang.org/fluttertoast-8.1.2",
      "packageUri": "lib/",
      "languageVersion": "2.12"
    },
    {
      "name": "freezed_annotation",
      "rootUri": "file:///C:/flutter/.pub-cache/hosted/pub.dartlang.org/freezed_annotation-2.2.0",
      "packageUri": "lib/",
      "languageVersion": "2.17"
    },
    {
      "name": "frontend_server_client",
      "rootUri": "file:///C:/flutter/.pub-cache/hosted/pub.dartlang.org/frontend_server_client-3.2.0",
      "packageUri": "lib/",
      "languageVersion": "2.12"
    },
    {
      "name": "glob",
      "rootUri": "file:///C:/flutter/.pub-cache/hosted/pub.dartlang.org/glob-2.1.1",
      "packageUri": "lib/",
      "languageVersion": "2.15"
    },
    {
      "name": "graphs",
      "rootUri": "file:///C:/flutter/.pub-cache/hosted/pub.dartlang.org/graphs-2.2.0",
      "packageUri": "lib/",
      "languageVersion": "2.12"
    },
    {
      "name": "html",
      "rootUri": "file:///C:/flutter/.pub-cache/hosted/pub.dartlang.org/html-0.15.1",
      "packageUri": "lib/",
      "languageVersion": "2.12"
    },
    {
      "name": "http",
      "rootUri": "file:///C:/flutter/.pub-cache/hosted/pub.dartlang.org/http-0.13.5",
      "packageUri": "lib/",
      "languageVersion": "2.14"
    },
    {
      "name": "http_auth",
      "rootUri": "file:///C:/flutter/.pub-cache/hosted/pub.dartlang.org/http_auth-1.0.1",
      "packageUri": "lib/",
      "languageVersion": "2.12"
    },
    {
      "name": "http_multi_server",
      "rootUri": "file:///C:/flutter/.pub-cache/hosted/pub.dartlang.org/http_multi_server-3.2.1",
      "packageUri": "lib/",
      "languageVersion": "2.12"
    },
    {
      "name": "http_parser",
      "rootUri": "file:///C:/flutter/.pub-cache/hosted/pub.dartlang.org/http_parser-4.0.2",
      "packageUri": "lib/",
      "languageVersion": "2.12"
    },
    {
      "name": "image_crop",
      "rootUri": "file:///C:/flutter/.pub-cache/hosted/pub.dartlang.org/image_crop-0.4.1",
      "packageUri": "lib/",
      "languageVersion": "2.17"
    },
    {
      "name": "intl",
      "rootUri": "file:///C:/flutter/.pub-cache/hosted/pub.dartlang.org/intl-0.17.0",
      "packageUri": "lib/",
      "languageVersion": "2.12"
    },
    {
      "name": "io",
      "rootUri": "file:///C:/flutter/.pub-cache/hosted/pub.dartlang.org/io-1.0.3",
      "packageUri": "lib/",
      "languageVersion": "2.12"
    },
    {
      "name": "js",
      "rootUri": "file:///C:/flutter/.pub-cache/hosted/pub.dartlang.org/js-0.6.4",
      "packageUri": "lib/",
      "languageVersion": "2.16"
    },
    {
      "name": "json_annotation",
      "rootUri": "file:///C:/flutter/.pub-cache/hosted/pub.dartlang.org/json_annotation-4.7.0",
      "packageUri": "lib/",
      "languageVersion": "2.17"
    },
    {
      "name": "just_audio",
      "rootUri": "file:///C:/flutter/.pub-cache/hosted/pub.dartlang.org/just_audio-0.9.31",
      "packageUri": "lib/",
      "languageVersion": "2.12"
    },
    {
      "name": "just_audio_platform_interface",
      "rootUri": "file:///C:/flutter/.pub-cache/hosted/pub.dartlang.org/just_audio_platform_interface-4.2.0",
      "packageUri": "lib/",
      "languageVersion": "2.12"
    },
    {
      "name": "just_audio_web",
      "rootUri": "file:///C:/flutter/.pub-cache/hosted/pub.dartlang.org/just_audio_web-0.4.7",
      "packageUri": "lib/",
      "languageVersion": "2.12"
    },
    {
      "name": "lints",
      "rootUri": "file:///C:/flutter/.pub-cache/hosted/pub.dartlang.org/lints-1.0.1",
      "packageUri": "lib/",
      "languageVersion": "2.12"
    },
    {
      "name": "logger",
      "rootUri": "file:///C:/flutter/.pub-cache/hosted/pub.dartlang.org/logger-1.1.0",
      "packageUri": "lib/",
      "languageVersion": "2.12"
    },
    {
      "name": "logging",
      "rootUri": "file:///C:/flutter/.pub-cache/hosted/pub.dartlang.org/logging-1.1.0",
      "packageUri": "lib/",
      "languageVersion": "2.12"
    },
    {
      "name": "mailer",
      "rootUri": "file:///C:/flutter/.pub-cache/hosted/pub.dartlang.org/mailer-6.0.0",
      "packageUri": "lib/",
      "languageVersion": "2.12"
    },
    {
      "name": "matcher",
      "rootUri": "file:///C:/flutter/.pub-cache/hosted/pub.dartlang.org/matcher-0.12.12",
      "packageUri": "lib/",
      "languageVersion": "2.12"
    },
    {
      "name": "material_color_utilities",
      "rootUri": "file:///C:/flutter/.pub-cache/hosted/pub.dartlang.org/material_color_utilities-0.1.5",
      "packageUri": "lib/",
      "languageVersion": "2.13"
    },
    {
      "name": "meta",
      "rootUri": "file:///C:/flutter/.pub-cache/hosted/pub.dartlang.org/meta-1.8.0",
      "packageUri": "lib/",
      "languageVersion": "2.12"
    },
    {
      "name": "mime",
      "rootUri": "file:///C:/flutter/.pub-cache/hosted/pub.dartlang.org/mime-1.0.3",
      "packageUri": "lib/",
      "languageVersion": "2.12"
    },
    {
      "name": "mobx",
      "rootUri": "file:///C:/flutter/.pub-cache/hosted/pub.dartlang.org/mobx-2.1.3",
      "packageUri": "lib/",
      "languageVersion": "2.17"
    },
    {
      "name": "mobx_codegen",
      "rootUri": "file:///C:/flutter/.pub-cache/hosted/pub.dartlang.org/mobx_codegen-2.1.1",
      "packageUri": "lib/",
      "languageVersion": "2.13"
    },
    {
      "name": "nested",
      "rootUri": "file:///C:/flutter/.pub-cache/hosted/pub.dartlang.org/nested-1.0.0",
      "packageUri": "lib/",
      "languageVersion": "2.12"
    },
    {
      "name": "octo_image",
      "rootUri": "file:///C:/flutter/.pub-cache/hosted/pub.dartlang.org/octo_image-1.0.2",
      "packageUri": "lib/",
      "languageVersion": "2.12"
    },
    {
      "name": "opencv_4",
      "rootUri": "file:///C:/flutter/.pub-cache/hosted/pub.dartlang.org/opencv_4-1.0.0",
      "packageUri": "lib/",
      "languageVersion": "2.12"
    },
    {
      "name": "package_config",
      "rootUri": "file:///C:/flutter/.pub-cache/hosted/pub.dartlang.org/package_config-2.1.0",
      "packageUri": "lib/",
      "languageVersion": "2.12"
    },
    {
      "name": "path",
      "rootUri": "file:///C:/flutter/.pub-cache/hosted/pub.dartlang.org/path-1.8.2",
      "packageUri": "lib/",
      "languageVersion": "2.12"
    },
    {
      "name": "path_drawing",
      "rootUri": "file:///C:/flutter/.pub-cache/hosted/pub.dartlang.org/path_drawing-1.0.1",
      "packageUri": "lib/",
      "languageVersion": "2.12"
    },
    {
      "name": "path_parsing",
      "rootUri": "file:///C:/flutter/.pub-cache/hosted/pub.dartlang.org/path_parsing-1.0.1",
      "packageUri": "lib/",
      "languageVersion": "2.12"
    },
    {
      "name": "path_provider",
      "rootUri": "file:///C:/flutter/.pub-cache/hosted/pub.dartlang.org/path_provider-2.0.11",
      "packageUri": "lib/",
      "languageVersion": "2.14"
    },
    {
      "name": "path_provider_android",
      "rootUri": "file:///C:/flutter/.pub-cache/hosted/pub.dartlang.org/path_provider_android-2.0.22",
      "packageUri": "lib/",
      "languageVersion": "2.14"
    },
    {
      "name": "path_provider_ios",
      "rootUri": "file:///C:/flutter/.pub-cache/hosted/pub.dartlang.org/path_provider_ios-2.0.11",
      "packageUri": "lib/",
      "languageVersion": "2.14"
    },
    {
      "name": "path_provider_linux",
      "rootUri": "file:///C:/flutter/.pub-cache/hosted/pub.dartlang.org/path_provider_linux-2.1.7",
      "packageUri": "lib/",
      "languageVersion": "2.12"
    },
    {
      "name": "path_provider_macos",
      "rootUri": "file:///C:/flutter/.pub-cache/hosted/pub.dartlang.org/path_provider_macos-2.0.6",
      "packageUri": "lib/",
      "languageVersion": "2.12"
    },
    {
      "name": "path_provider_platform_interface",
      "rootUri": "file:///C:/flutter/.pub-cache/hosted/pub.dartlang.org/path_provider_platform_interface-2.0.5",
      "packageUri": "lib/",
      "languageVersion": "2.12"
    },
    {
      "name": "path_provider_windows",
      "rootUri": "file:///C:/flutter/.pub-cache/hosted/pub.dartlang.org/path_provider_windows-2.1.3",
      "packageUri": "lib/",
      "languageVersion": "2.17"
    },
    {
      "name": "pedantic",
      "rootUri": "file:///C:/flutter/.pub-cache/hosted/pub.dartlang.org/pedantic-1.11.1",
      "packageUri": "lib/",
      "languageVersion": "2.12"
    },
    {
      "name": "permission_handler",
      "rootUri": "file:///C:/flutter/.pub-cache/hosted/pub.dartlang.org/permission_handler-10.2.0",
      "packageUri": "lib/",
      "languageVersion": "2.15"
    },
    {
      "name": "permission_handler_android",
      "rootUri": "file:///C:/flutter/.pub-cache/hosted/pub.dartlang.org/permission_handler_android-10.2.0",
      "packageUri": "lib/",
      "languageVersion": "2.15"
    },
    {
      "name": "permission_handler_apple",
      "rootUri": "file:///C:/flutter/.pub-cache/hosted/pub.dartlang.org/permission_handler_apple-9.0.7",
      "packageUri": "lib/",
      "languageVersion": "2.15"
    },
    {
      "name": "permission_handler_platform_interface",
      "rootUri": "file:///C:/flutter/.pub-cache/hosted/pub.dartlang.org/permission_handler_platform_interface-3.9.0",
      "packageUri": "lib/",
      "languageVersion": "2.14"
    },
    {
      "name": "permission_handler_windows",
      "rootUri": "file:///C:/flutter/.pub-cache/hosted/pub.dartlang.org/permission_handler_windows-0.1.2",
      "packageUri": "lib/",
      "languageVersion": "2.12"
    },
    {
      "name": "petitparser",
      "rootUri": "file:///C:/flutter/.pub-cache/hosted/pub.dartlang.org/petitparser-5.1.0",
      "packageUri": "lib/",
      "languageVersion": "2.18"
    },
    {
      "name": "phone_number",
      "rootUri": "file:///C:/flutter/.pub-cache/hosted/pub.dartlang.org/phone_number-1.0.0",
      "packageUri": "lib/",
      "languageVersion": "2.17"
    },
    {
      "name": "photo_manager",
      "rootUri": "file:///C:/flutter/.pub-cache/hosted/pub.dartlang.org/photo_manager-2.5.2",
      "packageUri": "lib/",
      "languageVersion": "2.13"
    },
    {
      "name": "platform",
      "rootUri": "file:///C:/flutter/.pub-cache/hosted/pub.dartlang.org/platform-3.1.0",
      "packageUri": "lib/",
      "languageVersion": "2.12"
    },
    {
      "name": "plugin_platform_interface",
      "rootUri": "file:///C:/flutter/.pub-cache/hosted/pub.dartlang.org/plugin_platform_interface-2.1.3",
      "packageUri": "lib/",
      "languageVersion": "2.12"
    },
    {
      "name": "pool",
      "rootUri": "file:///C:/flutter/.pub-cache/hosted/pub.dartlang.org/pool-1.5.1",
      "packageUri": "lib/",
      "languageVersion": "2.12"
    },
    {
      "name": "process",
      "rootUri": "file:///C:/flutter/.pub-cache/hosted/pub.dartlang.org/process-4.2.4",
      "packageUri": "lib/",
      "languageVersion": "2.14"
    },
    {
      "name": "provider",
      "rootUri": "file:///C:/flutter/.pub-cache/hosted/pub.dartlang.org/provider-6.0.5",
      "packageUri": "lib/",
      "languageVersion": "2.12"
    },
    {
      "name": "pub_semver",
      "rootUri": "file:///C:/flutter/.pub-cache/hosted/pub.dartlang.org/pub_semver-2.1.3",
      "packageUri": "lib/",
      "languageVersion": "2.17"
    },
    {
      "name": "pubspec_parse",
      "rootUri": "file:///C:/flutter/.pub-cache/hosted/pub.dartlang.org/pubspec_parse-1.2.1",
      "packageUri": "lib/",
      "languageVersion": "2.14"
    },
    {
      "name": "quiver",
      "rootUri": "file:///C:/flutter/.pub-cache/hosted/pub.dartlang.org/quiver-3.2.1",
      "packageUri": "lib/",
      "languageVersion": "2.17"
    },
    {
      "name": "recase",
      "rootUri": "file:///C:/flutter/.pub-cache/hosted/pub.dartlang.org/recase-4.1.0",
      "packageUri": "lib/",
      "languageVersion": "2.12"
    },
    {
      "name": "record",
      "rootUri": "file:///C:/flutter/.pub-cache/hosted/pub.dartlang.org/record-4.4.4",
      "packageUri": "lib/",
      "languageVersion": "2.15"
    },
    {
      "name": "record_linux",
      "rootUri": "file:///C:/flutter/.pub-cache/hosted/pub.dartlang.org/record_linux-0.4.1",
      "packageUri": "lib/",
      "languageVersion": "2.15"
    },
    {
      "name": "record_macos",
      "rootUri": "file:///C:/flutter/.pub-cache/hosted/pub.dartlang.org/record_macos-0.2.2",
      "packageUri": "lib/",
      "languageVersion": "2.15"
    },
    {
      "name": "record_platform_interface",
      "rootUri": "file:///C:/flutter/.pub-cache/hosted/pub.dartlang.org/record_platform_interface-0.5.0",
      "packageUri": "lib/",
      "languageVersion": "2.15"
    },
    {
      "name": "record_web",
      "rootUri": "file:///C:/flutter/.pub-cache/hosted/pub.dartlang.org/record_web-0.5.0",
      "packageUri": "lib/",
      "languageVersion": "2.15"
    },
    {
      "name": "record_windows",
      "rootUri": "file:///C:/flutter/.pub-cache/hosted/pub.dartlang.org/record_windows-0.7.1",
      "packageUri": "lib/",
      "languageVersion": "2.15"
    },
    {
      "name": "rxdart",
      "rootUri": "file:///C:/flutter/.pub-cache/hosted/pub.dartlang.org/rxdart-0.27.7",
      "packageUri": "lib/",
      "languageVersion": "2.12"
    },
    {
      "name": "share_plus",
      "rootUri": "file:///C:/flutter/.pub-cache/hosted/pub.dartlang.org/share_plus-6.3.0",
      "packageUri": "lib/",
      "languageVersion": "2.12"
    },
    {
      "name": "share_plus_platform_interface",
      "rootUri": "file:///C:/flutter/.pub-cache/hosted/pub.dartlang.org/share_plus_platform_interface-3.2.0",
      "packageUri": "lib/",
      "languageVersion": "2.12"
    },
    {
      "name": "shared_preferences",
      "rootUri": "file:///C:/flutter/.pub-cache/hosted/pub.dartlang.org/shared_preferences-2.0.15",
      "packageUri": "lib/",
      "languageVersion": "2.14"
    },
    {
      "name": "shared_preferences_android",
      "rootUri": "file:///C:/flutter/.pub-cache/hosted/pub.dartlang.org/shared_preferences_android-2.0.14",
      "packageUri": "lib/",
      "languageVersion": "2.14"
    },
    {
      "name": "shared_preferences_ios",
      "rootUri": "file:///C:/flutter/.pub-cache/hosted/pub.dartlang.org/shared_preferences_ios-2.1.1",
      "packageUri": "lib/",
      "languageVersion": "2.14"
    },
    {
      "name": "shared_preferences_linux",
      "rootUri": "file:///C:/flutter/.pub-cache/hosted/pub.dartlang.org/shared_preferences_linux-2.1.2",
      "packageUri": "lib/",
      "languageVersion": "2.12"
    },
    {
      "name": "shared_preferences_macos",
      "rootUri": "file:///C:/flutter/.pub-cache/hosted/pub.dartlang.org/shared_preferences_macos-2.0.4",
      "packageUri": "lib/",
      "languageVersion": "2.12"
    },
    {
      "name": "shared_preferences_platform_interface",
      "rootUri": "file:///C:/flutter/.pub-cache/hosted/pub.dartlang.org/shared_preferences_platform_interface-2.1.0",
      "packageUri": "lib/",
      "languageVersion": "2.12"
    },
    {
      "name": "shared_preferences_web",
      "rootUri": "file:///C:/flutter/.pub-cache/hosted/pub.dartlang.org/shared_preferences_web-2.0.4",
      "packageUri": "lib/",
      "languageVersion": "2.12"
    },
    {
      "name": "shared_preferences_windows",
      "rootUri": "file:///C:/flutter/.pub-cache/hosted/pub.dartlang.org/shared_preferences_windows-2.1.2",
      "packageUri": "lib/",
      "languageVersion": "2.12"
    },
    {
      "name": "shelf",
      "rootUri": "file:///C:/flutter/.pub-cache/hosted/pub.dartlang.org/shelf-1.4.0",
      "packageUri": "lib/",
      "languageVersion": "2.17"
    },
    {
      "name": "shelf_web_socket",
      "rootUri": "file:///C:/flutter/.pub-cache/hosted/pub.dartlang.org/shelf_web_socket-1.0.3",
      "packageUri": "lib/",
      "languageVersion": "2.17"
    },
    {
      "name": "shimmer",
      "rootUri": "file:///C:/flutter/.pub-cache/hosted/pub.dartlang.org/shimmer-2.0.0",
      "packageUri": "lib/",
      "languageVersion": "2.12"
    },
    {
      "name": "skeleton_text",
      "rootUri": "file:///C:/flutter/.pub-cache/hosted/pub.dartlang.org/skeleton_text-3.0.0",
      "packageUri": "lib/",
      "languageVersion": "2.12"
    },
    {
      "name": "sky_engine",
      "rootUri": "file:///C:/flutter/bin/cache/pkg/sky_engine",
      "packageUri": "lib/",
      "languageVersion": "2.12"
    },
    {
      "name": "source_gen",
      "rootUri": "file:///C:/flutter/.pub-cache/hosted/pub.dartlang.org/source_gen-1.2.6",
      "packageUri": "lib/",
      "languageVersion": "2.17"
    },
    {
      "name": "source_span",
      "rootUri": "file:///C:/flutter/.pub-cache/hosted/pub.dartlang.org/source_span-1.9.0",
      "packageUri": "lib/",
      "languageVersion": "2.14"
    },
    {
      "name": "sqflite",
      "rootUri": "file:///C:/flutter/.pub-cache/hosted/pub.dartlang.org/sqflite-2.2.2",
      "packageUri": "lib/",
      "languageVersion": "2.18"
    },
    {
      "name": "sqflite_common",
      "rootUri": "file:///C:/flutter/.pub-cache/hosted/pub.dartlang.org/sqflite_common-2.4.0+2",
      "packageUri": "lib/",
      "languageVersion": "2.18"
    },
    {
      "name": "stack_trace",
      "rootUri": "file:///C:/flutter/.pub-cache/hosted/pub.dartlang.org/stack_trace-1.10.0",
      "packageUri": "lib/",
      "languageVersion": "2.12"
    },
    {
      "name": "stomp_dart_client",
      "rootUri": "file:///C:/flutter/.pub-cache/hosted/pub.dartlang.org/stomp_dart_client-0.4.4",
      "packageUri": "lib/",
      "languageVersion": "2.12"
    },
    {
      "name": "stream_channel",
      "rootUri": "file:///C:/flutter/.pub-cache/hosted/pub.dartlang.org/stream_channel-2.1.0",
      "packageUri": "lib/",
      "languageVersion": "2.12"
    },
    {
      "name": "stream_transform",
      "rootUri": "file:///C:/flutter/.pub-cache/hosted/pub.dartlang.org/stream_transform-2.1.0",
      "packageUri": "lib/",
      "languageVersion": "2.14"
    },
    {
      "name": "string_scanner",
      "rootUri": "file:///C:/flutter/.pub-cache/hosted/pub.dartlang.org/string_scanner-1.1.1",
      "packageUri": "lib/",
      "languageVersion": "2.12"
    },
    {
      "name": "stripe_android",
      "rootUri": "file:///C:/flutter/.pub-cache/hosted/pub.dartlang.org/stripe_android-7.0.1",
      "packageUri": "lib/",
      "languageVersion": "2.12"
    },
    {
      "name": "stripe_ios",
      "rootUri": "file:///C:/flutter/.pub-cache/hosted/pub.dartlang.org/stripe_ios-7.0.0",
      "packageUri": "lib/",
      "languageVersion": "2.12"
    },
    {
      "name": "stripe_platform_interface",
      "rootUri": "file:///C:/flutter/.pub-cache/hosted/pub.dartlang.org/stripe_platform_interface-7.0.0",
      "packageUri": "lib/",
      "languageVersion": "2.16"
    },
    {
      "name": "syncfusion_flutter_core",
      "rootUri": "file:///C:/flutter/.pub-cache/hosted/pub.dartlang.org/syncfusion_flutter_core-20.4.41",
      "packageUri": "lib/",
      "languageVersion": "2.17"
    },
    {
      "name": "syncfusion_flutter_sliders",
      "rootUri": "file:///C:/flutter/.pub-cache/hosted/pub.dartlang.org/syncfusion_flutter_sliders-20.4.41",
      "packageUri": "lib/",
      "languageVersion": "2.17"
    },
    {
      "name": "synchronized",
      "rootUri": "file:///C:/flutter/.pub-cache/hosted/pub.dartlang.org/synchronized-3.0.0+3",
      "packageUri": "lib/",
      "languageVersion": "2.14"
    },
    {
      "name": "term_glyph",
      "rootUri": "file:///C:/flutter/.pub-cache/hosted/pub.dartlang.org/term_glyph-1.2.1",
      "packageUri": "lib/",
      "languageVersion": "2.12"
    },
    {
      "name": "test_api",
      "rootUri": "file:///C:/flutter/.pub-cache/hosted/pub.dartlang.org/test_api-0.4.12",
      "packageUri": "lib/",
      "languageVersion": "2.12"
    },
    {
      "name": "timing",
      "rootUri": "file:///C:/flutter/.pub-cache/hosted/pub.dartlang.org/timing-1.0.0",
      "packageUri": "lib/",
      "languageVersion": "2.12"
    },
    {
      "name": "typed_data",
      "rootUri": "file:///C:/flutter/.pub-cache/hosted/pub.dartlang.org/typed_data-1.3.1",
      "packageUri": "lib/",
      "languageVersion": "2.12"
    },
    {
      "name": "url_launcher",
      "rootUri": "file:///C:/flutter/.pub-cache/hosted/pub.dartlang.org/url_launcher-6.1.7",
      "packageUri": "lib/",
      "languageVersion": "2.14"
    },
    {
      "name": "url_launcher_android",
      "rootUri": "file:///C:/flutter/.pub-cache/hosted/pub.dartlang.org/url_launcher_android-6.0.22",
      "packageUri": "lib/",
      "languageVersion": "2.14"
    },
    {
      "name": "url_launcher_ios",
      "rootUri": "file:///C:/flutter/.pub-cache/hosted/pub.dartlang.org/url_launcher_ios-6.0.17",
      "packageUri": "lib/",
      "languageVersion": "2.14"
    },
    {
      "name": "url_launcher_linux",
      "rootUri": "file:///C:/flutter/.pub-cache/hosted/pub.dartlang.org/url_launcher_linux-3.0.1",
      "packageUri": "lib/",
      "languageVersion": "2.12"
    },
    {
      "name": "url_launcher_macos",
      "rootUri": "file:///C:/flutter/.pub-cache/hosted/pub.dartlang.org/url_launcher_macos-3.0.1",
      "packageUri": "lib/",
      "languageVersion": "2.12"
    },
    {
      "name": "url_launcher_platform_interface",
      "rootUri": "file:///C:/flutter/.pub-cache/hosted/pub.dartlang.org/url_launcher_platform_interface-2.1.1",
      "packageUri": "lib/",
      "languageVersion": "2.12"
    },
    {
      "name": "url_launcher_web",
      "rootUri": "file:///C:/flutter/.pub-cache/hosted/pub.dartlang.org/url_launcher_web-2.0.13",
      "packageUri": "lib/",
      "languageVersion": "2.12"
    },
    {
      "name": "url_launcher_windows",
      "rootUri": "file:///C:/flutter/.pub-cache/hosted/pub.dartlang.org/url_launcher_windows-3.0.1",
      "packageUri": "lib/",
      "languageVersion": "2.12"
    },
    {
      "name": "uuid",
      "rootUri": "file:///C:/flutter/.pub-cache/hosted/pub.dartlang.org/uuid-3.0.7",
      "packageUri": "lib/",
      "languageVersion": "2.12"
    },
    {
      "name": "vector_math",
      "rootUri": "file:///C:/flutter/.pub-cache/hosted/pub.dartlang.org/vector_math-2.1.2",
      "packageUri": "lib/",
      "languageVersion": "2.14"
    },
    {
      "name": "video_player",
      "rootUri": "file:///C:/flutter/.pub-cache/hosted/pub.dartlang.org/video_player-2.4.10",
      "packageUri": "lib/",
      "languageVersion": "2.14"
    },
    {
      "name": "video_player_android",
      "rootUri": "file:///C:/flutter/.pub-cache/hosted/pub.dartlang.org/video_player_android-2.3.10",
      "packageUri": "lib/",
      "languageVersion": "2.14"
    },
    {
      "name": "video_player_avfoundation",
      "rootUri": "file:///C:/flutter/.pub-cache/hosted/pub.dartlang.org/video_player_avfoundation-2.3.8",
      "packageUri": "lib/",
      "languageVersion": "2.14"
    },
    {
      "name": "video_player_platform_interface",
      "rootUri": "file:///C:/flutter/.pub-cache/hosted/pub.dartlang.org/video_player_platform_interface-6.0.1",
      "packageUri": "lib/",
      "languageVersion": "2.12"
    },
    {
      "name": "video_player_web",
      "rootUri": "file:///C:/flutter/.pub-cache/hosted/pub.dartlang.org/video_player_web-2.0.13",
      "packageUri": "lib/",
      "languageVersion": "2.12"
    },
    {
      "name": "visibility_detector",
      "rootUri": "file:///C:/flutter/.pub-cache/hosted/pub.dartlang.org/visibility_detector-0.3.3",
      "packageUri": "lib/",
      "languageVersion": "2.12"
    },
    {
      "name": "watcher",
      "rootUri": "file:///C:/flutter/.pub-cache/hosted/pub.dartlang.org/watcher-1.0.2",
      "packageUri": "lib/",
      "languageVersion": "2.14"
    },
    {
      "name": "web_socket_channel",
      "rootUri": "file:///C:/flutter/.pub-cache/hosted/pub.dartlang.org/web_socket_channel-2.2.0",
      "packageUri": "lib/",
      "languageVersion": "2.12"
    },
    {
      "name": "webview_flutter",
      "rootUri": "file:///C:/flutter/.pub-cache/hosted/pub.dartlang.org/webview_flutter-4.0.1",
      "packageUri": "lib/",
      "languageVersion": "2.17"
    },
    {
      "name": "webview_flutter_android",
      "rootUri": "file:///C:/flutter/.pub-cache/hosted/pub.dartlang.org/webview_flutter_android-3.1.1",
      "packageUri": "lib/",
      "languageVersion": "2.17"
    },
    {
      "name": "webview_flutter_platform_interface",
      "rootUri": "file:///C:/flutter/.pub-cache/hosted/pub.dartlang.org/webview_flutter_platform_interface-2.0.0",
      "packageUri": "lib/",
      "languageVersion": "2.12"
    },
    {
      "name": "webview_flutter_wkwebview",
      "rootUri": "file:///C:/flutter/.pub-cache/hosted/pub.dartlang.org/webview_flutter_wkwebview-3.0.1",
      "packageUri": "lib/",
      "languageVersion": "2.17"
    },
    {
      "name": "win32",
      "rootUri": "file:///C:/flutter/.pub-cache/hosted/pub.dartlang.org/win32-3.1.3",
      "packageUri": "lib/",
      "languageVersion": "2.17"
    },
    {
      "name": "xdg_directories",
      "rootUri": "file:///C:/flutter/.pub-cache/hosted/pub.dartlang.org/xdg_directories-0.2.0+2",
      "packageUri": "lib/",
      "languageVersion": "2.12"
    },
    {
      "name": "xml",
      "rootUri": "file:///C:/flutter/.pub-cache/hosted/pub.dartlang.org/xml-6.1.0",
      "packageUri": "lib/",
      "languageVersion": "2.17"
    },
    {
      "name": "yaml",
      "rootUri": "file:///C:/flutter/.pub-cache/hosted/pub.dartlang.org/yaml-3.1.1",
      "packageUri": "lib/",
      "languageVersion": "2.12"
    },
    {
      "name": "bridge",
      "rootUri": "../",
      "packageUri": "lib/",
      "languageVersion": "2.15"
    }
  ],
  "generated": "2023-01-02T02:10:24.337540Z",
  "generator": "pub",
  "generatorVersion": "2.18.6"
}
